\relax 
\citation{wiki}
\citation{wiki2}
\bibcite{wiki}{1}
\bibcite{wiki2}{2}
\bibcite{blowfish}{3}
\@writefile{lof}{\contentsline {figure}{\numberline {1}{\ignorespaces Block digram of Blowfish}}{1}}
\newlabel{f:blowfish-diagram}{{1}{1}}
\newlabel{cref@f:blowfish-diagram}{{[figure][1][]1}{1}}
\@writefile{toc}{\contentsline {section}{\relax \fontsize  {14}{17pt}\selectfont  References}{1}}
\@writefile{lot}{\contentsline {table}{\numberline {I}{\ignorespaces Time Schedule on the term project}}{2}}
\newlabel{t:schedule}{{I}{2}}
\newlabel{cref@t:schedule}{{[table][1][]I}{2}}
